[gd_scene load_steps=4 format=2]

[ext_resource path="res://scripts/ball.gd" type="Script" id=1]
[ext_resource path="res://sprites/ball_4x4.png" type="Texture" id=2]

[sub_resource type="CircleShape2D" id=1]

custom_solver_bias = 0.0
radius = 2.0

[node name="ball" type="RigidBody2D" index="0"]

z_index = -1
input_pickable = false
collision_layer = 1
collision_mask = 1
mode = 0
mass = 1.0
friction = 0.0
bounce = 1.0
gravity_scale = 0.0
custom_integrator = false
continuous_cd = 0
contacts_reported = 1
contact_monitor = true
sleeping = false
can_sleep = true
linear_velocity = Vector2( 100, -100 )
linear_damp = 0.0
angular_velocity = 0.0
angular_damp = 0.0
script = ExtResource( 1 )
_sections_unfolded = [ "Angular", "Linear", "Material", "Transform", "Visibility", "Z Index" ]
__meta__ = {
"_edit_group_": true
}

[node name="ball_4x4" type="Sprite" parent="." index="0"]

texture = ExtResource( 2 )
_sections_unfolded = [ "Transform" ]

[node name="CollisionShape2D" type="CollisionShape2D" parent="." index="1"]

shape = SubResource( 1 )

[node name="AudioStreamPlayer" type="AudioStreamPlayer" parent="." index="2"]

stream = null
volume_db = 0.0
pitch_scale = 1.0
autoplay = false
mix_target = 0
bus = "Master"

[node name="ColorRect" type="ColorRect" parent="." index="3"]

anchor_left = 0.0
anchor_top = 0.0
anchor_right = 0.0
anchor_bottom = 0.0
margin_left = -2.0
margin_top = -2.0
margin_right = 2.0
margin_bottom = 2.0
rect_pivot_offset = Vector2( 0, 0 )
rect_clip_content = false
mouse_filter = 0
mouse_default_cursor_shape = 0
size_flags_horizontal = 1
size_flags_vertical = 1
color = Color( 0.232849, 0.851562, 0.329523, 1 )
_sections_unfolded = [ "Rect" ]


