[gd_scene load_steps=4 format=2]

[ext_resource path="res://scripts/paddle.gd" type="Script" id=1]
[ext_resource path="res://sprites/paddle_32x8.png" type="Texture" id=2]

[sub_resource type="RectangleShape2D" id=1]

custom_solver_bias = 0.0
extents = Vector2( 16, 4 )

[node name="paddle" type="KinematicBody2D" index="0"]

position = Vector2( 76, 224 )
input_pickable = false
collision_layer = 1
collision_mask = 1
collision/safe_margin = 0.08
script = ExtResource( 1 )
_sections_unfolded = [ "collision" ]
__meta__ = {
"_edit_group_": true
}

[node name="paddle_32x8" type="Sprite" parent="." index="0"]

modulate = Color( 255, 255, 255, 1 )
texture = ExtResource( 2 )
_sections_unfolded = [ "Transform", "Visibility" ]

[node name="CollisionShape2D" type="CollisionShape2D" parent="." index="1"]

shape = SubResource( 1 )
_sections_unfolded = [ "Transform" ]

[node name="point" type="Position2D" parent="." index="2"]

position = Vector2( 0, 12 )

[node name="ColorRect" type="ColorRect" parent="." index="3"]

anchor_left = 0.0
anchor_top = 0.0
anchor_right = 0.0
anchor_bottom = 0.0
margin_left = -16.0
margin_top = -4.0
margin_right = 16.0
margin_bottom = 4.0
rect_pivot_offset = Vector2( 0, 0 )
rect_clip_content = false
mouse_filter = 0
mouse_default_cursor_shape = 0
size_flags_horizontal = 1
size_flags_vertical = 1
color = Color( 0.227936, 0.410081, 0.757812, 1 )
_sections_unfolded = [ "Grow Direction", "Rect" ]


