; Engine configuration file.
; It's best edited using the editor UI and not directly,
; since the parameters that go here are not all obvious.
;
; Format:
;   [section] ; section goes between []
;   param=value ; assign values to parameters

config_version=3

[application]

config/name="Weekly Game Jam 52 Entry"
run/main_scene="res://scenes/main_menu.tscn"
config/icon="res://icon.png"
config/quit_on_go_back=false

[autoload]

t="*res://scripts/tools.gd"

[display]

window/size/width=144
window/size/height=256
window/size/test_width=288
window/size/test_height=512
window/handheld/orientation="portrait"
window/stretch/mode="2d"
window/stretch/aspect="keep"

[input]

go=[ Object(InputEventMouseButton,"resource_local_to_scene":false,"resource_name":"","device":0,"alt":false,"shift":false,"control":false,"meta":false,"command":false,"button_mask":0,"position":Vector2( 0, 0 ),"global_position":Vector2( 0, 0 ),"factor":1.0,"button_index":1,"pressed":false,"doubleclick":false,"script":null)
 ]

[rendering]

environment/default_environment="res://default_env.tres"
